{"page":622,"totalPages":622,"totalResults":14909,"type":"FUTPlayerItemList","count":5,"items":[{"commonName":"","firstName":"Alex","headshotImgUrl":"https:\/\/fifa17.content.easports.com\/fifa\/fltOnlineAssets\/CC8267B6-0817-4842-BB6A-A20F88B05418\/2017\/fut\/items\/images\/players\/html5\/120x120\/234069.png","lastName":"Atkinson","league":{"abbrName":"ENG 4","id":61,"imgUrl":null,"name":"EFL League Two"},"nation":{"imageUrls":{"small":"https:\/\/fifa17.content.easports.com\/fifa\/fltOnlineAssets\/CC8267B6-0817-4842-BB6A-A20F88B05418\/2017\/fut\/items\/images\/flags\/html5\/24x14\/14.png","medium":"https:\/\/fifa17.content.easports.com\/fifa\/fltOnlineAssets\/CC8267B6-0817-4842-BB6A-A20F88B05418\/2017\/fut\/items\/images\/flags\/html5\/35x22\/14.png","large":"https:\/\/fifa17.content.easports.com\/fifa\/fltOnlineAssets\/CC8267B6-0817-4842-BB6A-A20F88B05418\/2017\/fut\/items\/images\/flags\/html5\/45x28\/14.png"},"abbrName":"England","id":14,"imgUrl":null,"name":"England"},"club":{"imageUrls":{"dark":{"small":"https:\/\/fifa17.content.easports.com\/fifa\/fltOnlineAssets\/CC8267B6-0817-4842-BB6A-A20F88B05418\/2017\/fut\/items\/images\/clubbadges\/html5\/dark\/24x24\/l1923.png","medium":"https:\/\/fifa17.content.easports.com\/fifa\/fltOnlineAssets\/CC8267B6-0817-4842-BB6A-A20F88B05418\/2017\/fut\/items\/images\/clubbadges\/html5\/dark\/35x35\/l1923.png","large":"https:\/\/fifa17.content.easports.com\/fifa\/fltOnlineAssets\/CC8267B6-0817-4842-BB6A-A20F88B05418\/2017\/fut\/items\/images\/clubbadges\/html5\/dark\/45x45\/l1923.png"},"normal":{"small":"https:\/\/fifa17.content.easports.com\/fifa\/fltOnlineAssets\/CC8267B6-0817-4842-BB6A-A20F88B05418\/2017\/fut\/items\/images\/clubbadges\/html5\/normal\/24x24\/l1923.png","medium":"https:\/\/fifa17.content.easports.com\/fifa\/fltOnlineAssets\/CC8267B6-0817-4842-BB6A-A20F88B05418\/2017\/fut\/items\/images\/clubbadges\/html5\/normal\/35x35\/l1923.png","large":"https:\/\/fifa17.content.easports.com\/fifa\/fltOnlineAssets\/CC8267B6-0817-4842-BB6A-A20F88B05418\/2017\/fut\/items\/images\/clubbadges\/html5\/normal\/45x45\/l1923.png"}},"abbrName":"Luton Town","id":1923,"imgUrl":null,"name":"Luton Town"},"headshot":{"largeImgUrl":"https:\/\/fifa17.content.easports.com\/fifa\/fltOnlineAssets\/CC8267B6-0817-4842-BB6A-A20F88B05418\/2017\/fut\/items\/images\/players\/html5\/120x120\/234069.png","medImgUrl":"https:\/\/fifa17.content.easports.com\/fifa\/fltOnlineAssets\/CC8267B6-0817-4842-BB6A-A20F88B05418\/2017\/fut\/items\/images\/players\/html5\/92x92\/234069.png","smallImgUrl":"https:\/\/fifa17.content.easports.com\/fifa\/fltOnlineAssets\/CC8267B6-0817-4842-BB6A-A20F88B05418\/2017\/fut\/items\/images\/players\/html5\/40x40\/234069.png"},"specialImages":{"largeTOTWImgUrl":null,"medTOTWImgUrl":null},"position":"CAM","playStyle":"Basic","playStyleId":null,"height":183,"weight":70,"birthdate":"1997-12-23","age":18,"acceleration":54,"aggression":51,"agility":44,"balance":54,"ballcontrol":37,"foot":"Right","skillMoves":3,"crossing":28,"curve":21,"dribbling":41,"finishing":45,"freekickaccuracy":30,"gkdiving":9,"gkhandling":14,"gkkicking":13,"gkpositioning":14,"gkreflexes":11,"headingaccuracy":31,"interceptions":46,"jumping":51,"longpassing":42,"longshots":39,"marking":37,"penalties":45,"positioning":37,"potential":63,"reactions":45,"shortpassing":42,"shotpower":37,"slidingtackle":40,"sprintspeed":52,"standingtackle":39,"stamina":59,"strength":48,"vision":55,"volleys":33,"weakFoot":3,"traits":null,"specialities":null,"atkWorkRate":"High","defWorkRate":"Medium","playerType":"standard","attributes":[{"name":"fut.attribute.PAC","value":53,"chemistryBonus":[0]},{"name":"fut.attribute.SHO","value":41,"chemistryBonus":[0]},{"name":"fut.attribute.PAS","value":40,"chemistryBonus":[0]},{"name":"fut.attribute.DRI","value":41,"chemistryBonus":[0]},{"name":"fut.attribute.DEF","value":39,"chemistryBonus":[0]},{"name":"fut.attribute.PHY","value":52,"chemistryBonus":[0]}],"name":"Atkinson","quality":"bronze","color":"bronze","isGK":false,"positionFull":"Centre Attacking Midfielder","isSpecialType":false,"contracts":null,"fitness":null,"rawAttributeChemistryBonus":null,"isLoan":null,"squadPosition":null,"itemType":"player","discardValue":null,"id":"234069","modelName":"FUTPlayerItem","baseId":234069,"rating":45},{"commonName":"","firstName":"Josh","headshotImgUrl":"https:\/\/fifa17.content.easports.com\/fifa\/fltOnlineAssets\/CC8267B6-0817-4842-BB6A-A20F88B05418\/2017\/fut\/items\/images\/players\/html5\/120x120\/234353.png","lastName":"Venney","league":{"abbrName":"ENG 4","id":61,"imgUrl":null,"name":"EFL League Two"},"nation":{"imageUrls":{"small":"https:\/\/fifa17.content.easports.com\/fifa\/fltOnlineAssets\/CC8267B6-0817-4842-BB6A-A20F88B05418\/2017\/fut\/items\/images\/flags\/html5\/24x14\/14.png","medium":"https:\/\/fifa17.content.easports.com\/fifa\/fltOnlineAssets\/CC8267B6-0817-4842-BB6A-A20F88B05418\/2017\/fut\/items\/images\/flags\/html5\/35x22\/14.png","large":"https:\/\/fifa17.content.easports.com\/fifa\/fltOnlineAssets\/CC8267B6-0817-4842-BB6A-A20F88B05418\/2017\/fut\/items\/images\/flags\/html5\/45x28\/14.png"},"abbrName":"England","id":14,"imgUrl":null,"name":"England"},"club":{"imageUrls":{"dark":{"small":"https:\/\/fifa17.content.easports.com\/fifa\/fltOnlineAssets\/CC8267B6-0817-4842-BB6A-A20F88B05418\/2017\/fut\/items\/images\/clubbadges\/html5\/dark\/24x24\/l92.png","medium":"https:\/\/fifa17.content.easports.com\/fifa\/fltOnlineAssets\/CC8267B6-0817-4842-BB6A-A20F88B05418\/2017\/fut\/items\/images\/clubbadges\/html5\/dark\/35x35\/l92.png","large":"https:\/\/fifa17.content.easports.com\/fifa\/fltOnlineAssets\/CC8267B6-0817-4842-BB6A-A20F88B05418\/2017\/fut\/items\/images\/clubbadges\/html5\/dark\/45x45\/l92.png"},"normal":{"small":"https:\/\/fifa17.content.easports.com\/fifa\/fltOnlineAssets\/CC8267B6-0817-4842-BB6A-A20F88B05418\/2017\/fut\/items\/images\/clubbadges\/html5\/normal\/24x24\/l92.png","medium":"https:\/\/fifa17.content.easports.com\/fifa\/fltOnlineAssets\/CC8267B6-0817-4842-BB6A-A20F88B05418\/2017\/fut\/items\/images\/clubbadges\/html5\/normal\/35x35\/l92.png","large":"https:\/\/fifa17.content.easports.com\/fifa\/fltOnlineAssets\/CC8267B6-0817-4842-BB6A-A20F88B05418\/2017\/fut\/items\/images\/clubbadges\/html5\/normal\/45x45\/l92.png"}},"abbrName":"Grimsby","id":92,"imgUrl":null,"name":"Grimsby Town"},"headshot":{"largeImgUrl":"https:\/\/fifa17.content.easports.com\/fifa\/fltOnlineAssets\/CC8267B6-0817-4842-BB6A-A20F88B05418\/2017\/fut\/items\/images\/players\/html5\/120x120\/234353.png","medImgUrl":"https:\/\/fifa17.content.easports.com\/fifa\/fltOnlineAssets\/CC8267B6-0817-4842-BB6A-A20F88B05418\/2017\/fut\/items\/images\/players\/html5\/92x92\/234353.png","smallImgUrl":"https:\/\/fifa17.content.easports.com\/fifa\/fltOnlineAssets\/CC8267B6-0817-4842-BB6A-A20F88B05418\/2017\/fut\/items\/images\/players\/html5\/40x40\/234353.png"},"specialImages":{"largeTOTWImgUrl":null,"medTOTWImgUrl":null},"position":"CM","playStyle":"Basic","playStyleId":null,"height":165,"weight":60,"birthdate":"1997-02-09","age":19,"acceleration":68,"aggression":34,"agility":61,"balance":70,"ballcontrol":40,"foot":"Right","skillMoves":2,"crossing":32,"curve":33,"dribbling":36,"finishing":35,"freekickaccuracy":32,"gkdiving":13,"gkhandling":11,"gkkicking":13,"gkpositioning":11,"gkreflexes":5,"headingaccuracy":38,"interceptions":28,"jumping":54,"longpassing":49,"longshots":33,"marking":38,"penalties":26,"positioning":48,"potential":62,"reactions":37,"shortpassing":49,"shotpower":32,"slidingtackle":42,"sprintspeed":68,"standingtackle":47,"stamina":51,"strength":58,"vision":48,"volleys":29,"weakFoot":3,"traits":null,"specialities":null,"atkWorkRate":"Medium","defWorkRate":"Medium","playerType":"standard","attributes":[{"name":"fut.attribute.PAC","value":68,"chemistryBonus":[0]},{"name":"fut.attribute.SHO","value":34,"chemistryBonus":[0]},{"name":"fut.attribute.PAS","value":44,"chemistryBonus":[0]},{"name":"fut.attribute.DRI","value":41,"chemistryBonus":[0]},{"name":"fut.attribute.DEF","value":39,"chemistryBonus":[0]},{"name":"fut.attribute.PHY","value":51,"chemistryBonus":[0]}],"name":"Venney","quality":"bronze","color":"bronze","isGK":false,"positionFull":"Centre Midfielder","isSpecialType":false,"contracts":null,"fitness":null,"rawAttributeChemistryBonus":null,"isLoan":null,"squadPosition":null,"itemType":"player","discardValue":null,"id":"234353","modelName":"FUTPlayerItem","baseId":234353,"rating":45},{"commonName":"","firstName":"Harry","headshotImgUrl":"https:\/\/fifa17.content.easports.com\/fifa\/fltOnlineAssets\/CC8267B6-0817-4842-BB6A-A20F88B05418\/2017\/fut\/items\/images\/players\/html5\/120x120\/234497.png","lastName":"Clifton","league":{"abbrName":"ENG 4","id":61,"imgUrl":null,"name":"EFL League Two"},"nation":{"imageUrls":{"small":"https:\/\/fifa17.content.easports.com\/fifa\/fltOnlineAssets\/CC8267B6-0817-4842-BB6A-A20F88B05418\/2017\/fut\/items\/images\/flags\/html5\/24x14\/14.png","medium":"https:\/\/fifa17.content.easports.com\/fifa\/fltOnlineAssets\/CC8267B6-0817-4842-BB6A-A20F88B05418\/2017\/fut\/items\/images\/flags\/html5\/35x22\/14.png","large":"https:\/\/fifa17.content.easports.com\/fifa\/fltOnlineAssets\/CC8267B6-0817-4842-BB6A-A20F88B05418\/2017\/fut\/items\/images\/flags\/html5\/45x28\/14.png"},"abbrName":"England","id":14,"imgUrl":null,"name":"England"},"club":{"imageUrls":{"dark":{"small":"https:\/\/fifa17.content.easports.com\/fifa\/fltOnlineAssets\/CC8267B6-0817-4842-BB6A-A20F88B05418\/2017\/fut\/items\/images\/clubbadges\/html5\/dark\/24x24\/l92.png","medium":"https:\/\/fifa17.content.easports.com\/fifa\/fltOnlineAssets\/CC8267B6-0817-4842-BB6A-A20F88B05418\/2017\/fut\/items\/images\/clubbadges\/html5\/dark\/35x35\/l92.png","large":"https:\/\/fifa17.content.easports.com\/fifa\/fltOnlineAssets\/CC8267B6-0817-4842-BB6A-A20F88B05418\/2017\/fut\/items\/images\/clubbadges\/html5\/dark\/45x45\/l92.png"},"normal":{"small":"https:\/\/fifa17.content.easports.com\/fifa\/fltOnlineAssets\/CC8267B6-0817-4842-BB6A-A20F88B05418\/2017\/fut\/items\/images\/clubbadges\/html5\/normal\/24x24\/l92.png","medium":"https:\/\/fifa17.content.easports.com\/fifa\/fltOnlineAssets\/CC8267B6-0817-4842-BB6A-A20F88B05418\/2017\/fut\/items\/images\/clubbadges\/html5\/normal\/35x35\/l92.png","large":"https:\/\/fifa17.content.easports.com\/fifa\/fltOnlineAssets\/CC8267B6-0817-4842-BB6A-A20F88B05418\/2017\/fut\/items\/images\/clubbadges\/html5\/normal\/45x45\/l92.png"}},"abbrName":"Grimsby","id":92,"imgUrl":null,"name":"Grimsby Town"},"headshot":{"largeImgUrl":"https:\/\/fifa17.content.easports.com\/fifa\/fltOnlineAssets\/CC8267B6-0817-4842-BB6A-A20F88B05418\/2017\/fut\/items\/images\/players\/html5\/120x120\/234497.png","medImgUrl":"https:\/\/fifa17.content.easports.com\/fifa\/fltOnlineAssets\/CC8267B6-0817-4842-BB6A-A20F88B05418\/2017\/fut\/items\/images\/players\/html5\/92x92\/234497.png","smallImgUrl":"https:\/\/fifa17.content.easports.com\/fifa\/fltOnlineAssets\/CC8267B6-0817-4842-BB6A-A20F88B05418\/2017\/fut\/items\/images\/players\/html5\/40x40\/234497.png"},"specialImages":{"largeTOTWImgUrl":null,"medTOTWImgUrl":null},"position":"CM","playStyle":"Basic","playStyleId":null,"height":180,"weight":88,"birthdate":"1998-06-12","age":18,"acceleration":65,"aggression":32,"agility":57,"balance":67,"ballcontrol":43,"foot":"Right","skillMoves":2,"crossing":34,"curve":32,"dribbling":43,"finishing":37,"freekickaccuracy":27,"gkdiving":9,"gkhandling":6,"gkkicking":8,"gkpositioning":7,"gkreflexes":10,"headingaccuracy":34,"interceptions":36,"jumping":51,"longpassing":47,"longshots":35,"marking":36,"penalties":24,"positioning":47,"potential":63,"reactions":35,"shortpassing":45,"shotpower":28,"slidingtackle":40,"sprintspeed":67,"standingtackle":44,"stamina":51,"strength":56,"vision":46,"volleys":27,"weakFoot":3,"traits":null,"specialities":null,"atkWorkRate":"Medium","defWorkRate":"Medium","playerType":"standard","attributes":[{"name":"fut.attribute.PAC","value":66,"chemistryBonus":[0]},{"name":"fut.attribute.SHO","value":34,"chemistryBonus":[0]},{"name":"fut.attribute.PAS","value":42,"chemistryBonus":[0]},{"name":"fut.attribute.DRI","value":45,"chemistryBonus":[0]},{"name":"fut.attribute.DEF","value":39,"chemistryBonus":[0]},{"name":"fut.attribute.PHY","value":50,"chemistryBonus":[0]}],"name":"Clifton","quality":"bronze","color":"bronze","isGK":false,"positionFull":"Centre Midfielder","isSpecialType":false,"contracts":null,"fitness":null,"rawAttributeChemistryBonus":null,"isLoan":null,"squadPosition":null,"itemType":"player","discardValue":null,"id":"234497","modelName":"FUTPlayerItem","baseId":234497,"rating":45},{"commonName":"","firstName":"Max","headshotImgUrl":"https:\/\/fifa17.content.easports.com\/fifa\/fltOnlineAssets\/CC8267B6-0817-4842-BB6A-A20F88B05418\/2017\/fut\/items\/images\/players\/html5\/120x120\/234733.png","lastName":"Wright","league":{"abbrName":"ENG 4","id":61,"imgUrl":null,"name":"EFL League Two"},"nation":{"imageUrls":{"small":"https:\/\/fifa17.content.easports.com\/fifa\/fltOnlineAssets\/CC8267B6-0817-4842-BB6A-A20F88B05418\/2017\/fut\/items\/images\/flags\/html5\/24x14\/14.png","medium":"https:\/\/fifa17.content.easports.com\/fifa\/fltOnlineAssets\/CC8267B6-0817-4842-BB6A-A20F88B05418\/2017\/fut\/items\/images\/flags\/html5\/35x22\/14.png","large":"https:\/\/fifa17.content.easports.com\/fifa\/fltOnlineAssets\/CC8267B6-0817-4842-BB6A-A20F88B05418\/2017\/fut\/items\/images\/flags\/html5\/45x28\/14.png"},"abbrName":"England","id":14,"imgUrl":null,"name":"England"},"club":{"imageUrls":{"dark":{"small":"https:\/\/fifa17.content.easports.com\/fifa\/fltOnlineAssets\/CC8267B6-0817-4842-BB6A-A20F88B05418\/2017\/fut\/items\/images\/clubbadges\/html5\/dark\/24x24\/l92.png","medium":"https:\/\/fifa17.content.easports.com\/fifa\/fltOnlineAssets\/CC8267B6-0817-4842-BB6A-A20F88B05418\/2017\/fut\/items\/images\/clubbadges\/html5\/dark\/35x35\/l92.png","large":"https:\/\/fifa17.content.easports.com\/fifa\/fltOnlineAssets\/CC8267B6-0817-4842-BB6A-A20F88B05418\/2017\/fut\/items\/images\/clubbadges\/html5\/dark\/45x45\/l92.png"},"normal":{"small":"https:\/\/fifa17.content.easports.com\/fifa\/fltOnlineAssets\/CC8267B6-0817-4842-BB6A-A20F88B05418\/2017\/fut\/items\/images\/clubbadges\/html5\/normal\/24x24\/l92.png","medium":"https:\/\/fifa17.content.easports.com\/fifa\/fltOnlineAssets\/CC8267B6-0817-4842-BB6A-A20F88B05418\/2017\/fut\/items\/images\/clubbadges\/html5\/normal\/35x35\/l92.png","large":"https:\/\/fifa17.content.easports.com\/fifa\/fltOnlineAssets\/CC8267B6-0817-4842-BB6A-A20F88B05418\/2017\/fut\/items\/images\/clubbadges\/html5\/normal\/45x45\/l92.png"}},"abbrName":"Grimsby","id":92,"imgUrl":null,"name":"Grimsby Town"},"headshot":{"largeImgUrl":"https:\/\/fifa17.content.easports.com\/fifa\/fltOnlineAssets\/CC8267B6-0817-4842-BB6A-A20F88B05418\/2017\/fut\/items\/images\/players\/html5\/120x120\/234733.png","medImgUrl":"https:\/\/fifa17.content.easports.com\/fifa\/fltOnlineAssets\/CC8267B6-0817-4842-BB6A-A20F88B05418\/2017\/fut\/items\/images\/players\/html5\/92x92\/234733.png","smallImgUrl":"https:\/\/fifa17.content.easports.com\/fifa\/fltOnlineAssets\/CC8267B6-0817-4842-BB6A-A20F88B05418\/2017\/fut\/items\/images\/players\/html5\/40x40\/234733.png"},"specialImages":{"largeTOTWImgUrl":null,"medTOTWImgUrl":null},"position":"RW","playStyle":"Basic","playStyleId":null,"height":170,"weight":76,"birthdate":"1998-04-06","age":18,"acceleration":65,"aggression":28,"agility":69,"balance":71,"ballcontrol":36,"foot":"Right","skillMoves":3,"crossing":43,"curve":32,"dribbling":47,"finishing":35,"freekickaccuracy":23,"gkdiving":5,"gkhandling":8,"gkkicking":14,"gkpositioning":14,"gkreflexes":9,"headingaccuracy":15,"interceptions":18,"jumping":48,"longpassing":38,"longshots":34,"marking":15,"penalties":20,"positioning":46,"potential":63,"reactions":34,"shortpassing":37,"shotpower":25,"slidingtackle":30,"sprintspeed":70,"standingtackle":20,"stamina":50,"strength":53,"vision":43,"volleys":25,"weakFoot":3,"traits":null,"specialities":null,"atkWorkRate":"Medium","defWorkRate":"Medium","playerType":"standard","attributes":[{"name":"fut.attribute.PAC","value":68,"chemistryBonus":[0]},{"name":"fut.attribute.SHO","value":32,"chemistryBonus":[0]},{"name":"fut.attribute.PAS","value":39,"chemistryBonus":[0]},{"name":"fut.attribute.DRI","value":46,"chemistryBonus":[0]},{"name":"fut.attribute.DEF","value":19,"chemistryBonus":[0]},{"name":"fut.attribute.PHY","value":47,"chemistryBonus":[0]}],"name":"Wright","quality":"bronze","color":"bronze","isGK":false,"positionFull":"Right Wing","isSpecialType":false,"contracts":null,"fitness":null,"rawAttributeChemistryBonus":null,"isLoan":null,"squadPosition":null,"itemType":"player","discardValue":null,"id":"234733","modelName":"FUTPlayerItem","baseId":234733,"rating":45},{"commonName":"","firstName":"Rhys","headshotImgUrl":"https:\/\/fifa17.content.easports.com\/fifa\/fltOnlineAssets\/CC8267B6-0817-4842-BB6A-A20F88B05418\/2017\/fut\/items\/images\/players\/html5\/120x120\/235535.png","lastName":"Lovett","league":{"abbrName":"ENG 4","id":61,"imgUrl":null,"name":"EFL League Two"},"nation":{"imageUrls":{"small":"https:\/\/fifa17.content.easports.com\/fifa\/fltOnlineAssets\/CC8267B6-0817-4842-BB6A-A20F88B05418\/2017\/fut\/items\/images\/flags\/html5\/24x14\/14.png","medium":"https:\/\/fifa17.content.easports.com\/fifa\/fltOnlineAssets\/CC8267B6-0817-4842-BB6A-A20F88B05418\/2017\/fut\/items\/images\/flags\/html5\/35x22\/14.png","large":"https:\/\/fifa17.content.easports.com\/fifa\/fltOnlineAssets\/CC8267B6-0817-4842-BB6A-A20F88B05418\/2017\/fut\/items\/images\/flags\/html5\/45x28\/14.png"},"abbrName":"England","id":14,"imgUrl":null,"name":"England"},"club":{"imageUrls":{"dark":{"small":"https:\/\/fifa17.content.easports.com\/fifa\/fltOnlineAssets\/CC8267B6-0817-4842-BB6A-A20F88B05418\/2017\/fut\/items\/images\/clubbadges\/html5\/dark\/24x24\/l1936.png","medium":"https:\/\/fifa17.content.easports.com\/fifa\/fltOnlineAssets\/CC8267B6-0817-4842-BB6A-A20F88B05418\/2017\/fut\/items\/images\/clubbadges\/html5\/dark\/35x35\/l1936.png","large":"https:\/\/fifa17.content.easports.com\/fifa\/fltOnlineAssets\/CC8267B6-0817-4842-BB6A-A20F88B05418\/2017\/fut\/items\/images\/clubbadges\/html5\/dark\/45x45\/l1936.png"},"normal":{"small":"https:\/\/fifa17.content.easports.com\/fifa\/fltOnlineAssets\/CC8267B6-0817-4842-BB6A-A20F88B05418\/2017\/fut\/items\/images\/clubbadges\/html5\/normal\/24x24\/l1936.png","medium":"https:\/\/fifa17.content.easports.com\/fifa\/fltOnlineAssets\/CC8267B6-0817-4842-BB6A-A20F88B05418\/2017\/fut\/items\/images\/clubbadges\/html5\/normal\/35x35\/l1936.png","large":"https:\/\/fifa17.content.easports.com\/fifa\/fltOnlineAssets\/CC8267B6-0817-4842-BB6A-A20F88B05418\/2017\/fut\/items\/images\/clubbadges\/html5\/normal\/45x45\/l1936.png"}},"abbrName":"Cheltenham","id":1936,"imgUrl":null,"name":"Cheltenham Town"},"headshot":{"largeImgUrl":"https:\/\/fifa17.content.easports.com\/fifa\/fltOnlineAssets\/CC8267B6-0817-4842-BB6A-A20F88B05418\/2017\/fut\/items\/images\/players\/html5\/120x120\/235535.png","medImgUrl":"https:\/\/fifa17.content.easports.com\/fifa\/fltOnlineAssets\/CC8267B6-0817-4842-BB6A-A20F88B05418\/2017\/fut\/items\/images\/players\/html5\/92x92\/235535.png","smallImgUrl":"https:\/\/fifa17.content.easports.com\/fifa\/fltOnlineAssets\/CC8267B6-0817-4842-BB6A-A20F88B05418\/2017\/fut\/items\/images\/players\/html5\/40x40\/235535.png"},"specialImages":{"largeTOTWImgUrl":null,"medTOTWImgUrl":null},"position":"GK","playStyle":"Basic","playStyleId":null,"height":183,"weight":74,"birthdate":"1997-05-15","age":19,"acceleration":36,"aggression":12,"agility":48,"balance":42,"ballcontrol":19,"foot":"Right","skillMoves":1,"crossing":12,"curve":10,"dribbling":7,"finishing":6,"freekickaccuracy":10,"gkdiving":47,"gkhandling":44,"gkkicking":39,"gkpositioning":41,"gkreflexes":48,"headingaccuracy":11,"interceptions":8,"jumping":60,"longpassing":23,"longshots":6,"marking":9,"penalties":11,"positioning":4,"potential":56,"reactions":36,"shortpassing":19,"shotpower":18,"slidingtackle":12,"sprintspeed":30,"standingtackle":13,"stamina":20,"strength":38,"vision":12,"volleys":7,"weakFoot":1,"traits":null,"specialities":null,"atkWorkRate":"Medium","defWorkRate":"Medium","playerType":"standard","attributes":[{"name":"fut.attribute.DIV","value":47,"chemistryBonus":[0]},{"name":"fut.attribute.HAN","value":44,"chemistryBonus":[0]},{"name":"fut.attribute.KIC","value":39,"chemistryBonus":[0]},{"name":"fut.attribute.REF","value":48,"chemistryBonus":[0]},{"name":"fut.attribute.SPD","value":36,"chemistryBonus":[0]},{"name":"fut.attribute.POS","value":41,"chemistryBonus":[0]}],"name":"Lovett","quality":"bronze","color":"bronze","isGK":true,"positionFull":"Goalkeeper","isSpecialType":false,"contracts":null,"fitness":null,"rawAttributeChemistryBonus":null,"isLoan":null,"squadPosition":null,"itemType":"player","discardValue":null,"id":"235535","modelName":"FUTPlayerItem","baseId":235535,"rating":45}]}